^C:\USERS\LORDKOPAKOS\DESKTOP\BITBUCKET REPOSITORIES\ADVANCED-C-OPENGL-GAME\OPENGLGAME\OPENGLGAME\BULLET.CPP
/c /I"C:\USERS\LORDKOPAKOS\DESKTOP\BITBUCKET REPOSITORIES\ADVANCED-C-OPENGL-GAME\OPENGLGAME\PACKAGES\GLFX.0.75\BUILD\NATIVE\../..//BUILD/NATIVE/INCLUDE/" /ZI /nologo /W3 /WX- /diagnostics:classic /sdl /Od /Oy- /D _MBCS /Gm /EHsc /RTC1 /MDd /GS /fp:precise /Zc:wchar_t /Zc:forScope /Zc:inline /Fo"DEBUG\\" /Fd"DEBUG\VC141.PDB" /Gd /TP /analyze- C:\USERS\LORDKOPAKOS\DESKTOP\BITBUCKET REPOSITORIES\ADVANCED-C-OPENGL-GAME\OPENGLGAME\OPENGLGAME\BULLET.CPP
^C:\USERS\LORDKOPAKOS\DESKTOP\BITBUCKET REPOSITORIES\ADVANCED-C-OPENGL-GAME\OPENGLGAME\OPENGLGAME\MAIN.CPP
/c /I"C:\USERS\LORDKOPAKOS\DESKTOP\BITBUCKET REPOSITORIES\ADVANCED-C-OPENGL-GAME\OPENGLGAME\PACKAGES\GLFX.0.75\BUILD\NATIVE\../..//BUILD/NATIVE/INCLUDE/" /ZI /nologo /W3 /WX- /diagnostics:classic /sdl /Od /Oy- /D _MBCS /Gm /EHsc /RTC1 /MDd /GS /fp:precise /Zc:wchar_t /Zc:forScope /Zc:inline /Fo"DEBUG\\" /Fd"DEBUG\VC141.PDB" /Gd /TP /analyze- C:\USERS\LORDKOPAKOS\DESKTOP\BITBUCKET REPOSITORIES\ADVANCED-C-OPENGL-GAME\OPENGLGAME\OPENGLGAME\MAIN.CPP
^C:\USERS\LORDKOPAKOS\DESKTOP\BITBUCKET REPOSITORIES\ADVANCED-C-OPENGL-GAME\OPENGLGAME\OPENGLGAME\MAINGAME.CPP
/c /I"C:\USERS\LORDKOPAKOS\DESKTOP\BITBUCKET REPOSITORIES\ADVANCED-C-OPENGL-GAME\OPENGLGAME\PACKAGES\GLFX.0.75\BUILD\NATIVE\../..//BUILD/NATIVE/INCLUDE/" /ZI /nologo /W3 /WX- /diagnostics:classic /sdl /Od /Oy- /D _MBCS /Gm /EHsc /RTC1 /MDd /GS /fp:precise /Zc:wchar_t /Zc:forScope /Zc:inline /Fo"DEBUG\\" /Fd"DEBUG\VC141.PDB" /Gd /TP /analyze- C:\USERS\LORDKOPAKOS\DESKTOP\BITBUCKET REPOSITORIES\ADVANCED-C-OPENGL-GAME\OPENGLGAME\OPENGLGAME\MAINGAME.CPP
^C:\USERS\SEBASTIAN\DESKTOP\BITBUCKET REPOSITORIES\ADVANCED-C-OPENGL-GAME\OPENGLGAME\OPENGLGAME\BULLET.CPP
/c /I"C:\USERS\SEBASTIAN\DESKTOP\BITBUCKET REPOSITORIES\ADVANCED-C-OPENGL-GAME\OPENGLGAME\PACKAGES\GLFX.0.75\BUILD\NATIVE\../..//BUILD/NATIVE/INCLUDE/" /ZI /nologo /W3 /WX- /diagnostics:classic /sdl /Od /Oy- /D _SILENCE_ALL_CXX17_DEPRECATION_WARNINGS /D _MBCS /Gm /EHsc /RTC1 /MDd /GS /fp:precise /Zc:wchar_t /Zc:forScope /Zc:inline /Fo"DEBUG\\" /Fd"DEBUG\VC141.PDB" /Gd /TP /analyze- C:\USERS\SEBASTIAN\DESKTOP\BITBUCKET REPOSITORIES\ADVANCED-C-OPENGL-GAME\OPENGLGAME\OPENGLGAME\BULLET.CPP
^C:\USERS\SEBASTIAN\DESKTOP\BITBUCKET REPOSITORIES\ADVANCED-C-OPENGL-GAME\OPENGLGAME\OPENGLGAME\MAIN.CPP
/c /I"C:\USERS\SEBASTIAN\DESKTOP\BITBUCKET REPOSITORIES\ADVANCED-C-OPENGL-GAME\OPENGLGAME\PACKAGES\GLFX.0.75\BUILD\NATIVE\../..//BUILD/NATIVE/INCLUDE/" /ZI /nologo /W3 /WX- /diagnostics:classic /sdl /Od /Oy- /D _SILENCE_ALL_CXX17_DEPRECATION_WARNINGS /D _MBCS /Gm /EHsc /RTC1 /MDd /GS /fp:precise /Zc:wchar_t /Zc:forScope /Zc:inline /Fo"DEBUG\\" /Fd"DEBUG\VC141.PDB" /Gd /TP /analyze- C:\USERS\SEBASTIAN\DESKTOP\BITBUCKET REPOSITORIES\ADVANCED-C-OPENGL-GAME\OPENGLGAME\OPENGLGAME\MAIN.CPP
^C:\USERS\SEBASTIAN\DESKTOP\BITBUCKET REPOSITORIES\ADVANCED-C-OPENGL-GAME\OPENGLGAME\OPENGLGAME\MAINGAME.CPP
/c /I"C:\USERS\SEBASTIAN\DESKTOP\BITBUCKET REPOSITORIES\ADVANCED-C-OPENGL-GAME\OPENGLGAME\PACKAGES\GLFX.0.75\BUILD\NATIVE\../..//BUILD/NATIVE/INCLUDE/" /ZI /nologo /W3 /WX- /diagnostics:classic /sdl /Od /Oy- /D _SILENCE_ALL_CXX17_DEPRECATION_WARNINGS /D _MBCS /Gm /EHsc /RTC1 /MDd /GS /fp:precise /Zc:wchar_t /Zc:forScope /Zc:inline /Fo"DEBUG\\" /Fd"DEBUG\VC141.PDB" /Gd /TP /analyze- C:\USERS\SEBASTIAN\DESKTOP\BITBUCKET REPOSITORIES\ADVANCED-C-OPENGL-GAME\OPENGLGAME\OPENGLGAME\MAINGAME.CPP
