^C:\USERS\LORDKOPAKOS\DESKTOP\BITBUCKET REPOSITORIES\ADVANCED-C-OPENGL-GAME\OPENGLGAME\ABRA_VODKABRA_GAME\BOX2D.CPP
/c /ZI /nologo /W3 /WX- /diagnostics:classic /sdl /Od /Oy- /D _MBCS /Gm /EHsc /RTC1 /MDd /GS /fp:precise /Zc:wchar_t /Zc:forScope /Zc:inline /Fo"DEBUG\\" /Fd"DEBUG\VC141.PDB" /Gd /TP /analyze- --add /std:c++latest  C:\USERS\LORDKOPAKOS\DESKTOP\BITBUCKET REPOSITORIES\ADVANCED-C-OPENGL-GAME\OPENGLGAME\ABRA_VODKABRA_GAME\BOX2D.CPP
^C:\USERS\LORDKOPAKOS\DESKTOP\BITBUCKET REPOSITORIES\ADVANCED-C-OPENGL-GAME\OPENGLGAME\ABRA_VODKABRA_GAME\CAPSULE2D.CPP
/c /ZI /nologo /W3 /WX- /diagnostics:classic /sdl /Od /Oy- /D _MBCS /Gm /EHsc /RTC1 /MDd /GS /fp:precise /Zc:wchar_t /Zc:forScope /Zc:inline /Fo"DEBUG\\" /Fd"DEBUG\VC141.PDB" /Gd /TP /analyze- --add /std:c++latest  C:\USERS\LORDKOPAKOS\DESKTOP\BITBUCKET REPOSITORIES\ADVANCED-C-OPENGL-GAME\OPENGLGAME\ABRA_VODKABRA_GAME\CAPSULE2D.CPP
^C:\USERS\LORDKOPAKOS\DESKTOP\BITBUCKET REPOSITORIES\ADVANCED-C-OPENGL-GAME\OPENGLGAME\ABRA_VODKABRA_GAME\GAMEPLAY_SCREEN.CPP
/c /ZI /nologo /W3 /WX- /diagnostics:classic /sdl /Od /Oy- /D _MBCS /Gm /EHsc /RTC1 /MDd /GS /fp:precise /Zc:wchar_t /Zc:forScope /Zc:inline /Fo"DEBUG\\" /Fd"DEBUG\VC141.PDB" /Gd /TP /analyze- --add /std:c++latest  C:\USERS\LORDKOPAKOS\DESKTOP\BITBUCKET REPOSITORIES\ADVANCED-C-OPENGL-GAME\OPENGLGAME\ABRA_VODKABRA_GAME\GAMEPLAY_SCREEN.CPP
^C:\USERS\LORDKOPAKOS\DESKTOP\BITBUCKET REPOSITORIES\ADVANCED-C-OPENGL-GAME\OPENGLGAME\ABRA_VODKABRA_GAME\LIGHT.CPP
/c /ZI /nologo /W3 /WX- /diagnostics:classic /sdl /Od /Oy- /D _MBCS /Gm /EHsc /RTC1 /MDd /GS /fp:precise /Zc:wchar_t /Zc:forScope /Zc:inline /Fo"DEBUG\\" /Fd"DEBUG\VC141.PDB" /Gd /TP /analyze- --add /std:c++latest  C:\USERS\LORDKOPAKOS\DESKTOP\BITBUCKET REPOSITORIES\ADVANCED-C-OPENGL-GAME\OPENGLGAME\ABRA_VODKABRA_GAME\LIGHT.CPP
^C:\USERS\LORDKOPAKOS\DESKTOP\BITBUCKET REPOSITORIES\ADVANCED-C-OPENGL-GAME\OPENGLGAME\ABRA_VODKABRA_GAME\MAIN.CPP
/c /ZI /nologo /W3 /WX- /diagnostics:classic /sdl /Od /Oy- /D _MBCS /Gm /EHsc /RTC1 /MDd /GS /fp:precise /Zc:wchar_t /Zc:forScope /Zc:inline /Fo"DEBUG\\" /Fd"DEBUG\VC141.PDB" /Gd /TP /analyze- --add /std:c++latest  C:\USERS\LORDKOPAKOS\DESKTOP\BITBUCKET REPOSITORIES\ADVANCED-C-OPENGL-GAME\OPENGLGAME\ABRA_VODKABRA_GAME\MAIN.CPP
^C:\USERS\LORDKOPAKOS\DESKTOP\BITBUCKET REPOSITORIES\ADVANCED-C-OPENGL-GAME\OPENGLGAME\ABRA_VODKABRA_GAME\GAME_ENGINE.CPP
/c /ZI /nologo /W3 /WX- /diagnostics:classic /sdl /Od /Oy- /D _MBCS /Gm /EHsc /RTC1 /MDd /GS /fp:precise /Zc:wchar_t /Zc:forScope /Zc:inline /Fo"DEBUG\\" /Fd"DEBUG\VC141.PDB" /Gd /TP /analyze- --add /std:c++latest  C:\USERS\LORDKOPAKOS\DESKTOP\BITBUCKET REPOSITORIES\ADVANCED-C-OPENGL-GAME\OPENGLGAME\ABRA_VODKABRA_GAME\GAME_ENGINE.CPP
^C:\USERS\LORDKOPAKOS\DESKTOP\BITBUCKET REPOSITORIES\ADVANCED-C-OPENGL-GAME\OPENGLGAME\ABRA_VODKABRA_GAME\PLAYER.CPP
/c /ZI /nologo /W3 /WX- /diagnostics:classic /sdl /Od /Oy- /D _MBCS /Gm /EHsc /RTC1 /MDd /GS /fp:precise /Zc:wchar_t /Zc:forScope /Zc:inline /Fo"DEBUG\\" /Fd"DEBUG\VC141.PDB" /Gd /TP /analyze- --add /std:c++latest  C:\USERS\LORDKOPAKOS\DESKTOP\BITBUCKET REPOSITORIES\ADVANCED-C-OPENGL-GAME\OPENGLGAME\ABRA_VODKABRA_GAME\PLAYER.CPP
^C:\USERS\LORDKOPAKOS\DESKTOP\BITBUCKET REPOSITORIES\ADVANCED-C-OPENGL-GAME\OPENGLGAME\ABRA_VODKABRA_GAME\MAINMENU_SCREEN.CPP
/c /ZI /nologo /W3 /WX- /diagnostics:classic /sdl /Od /Oy- /D _MBCS /Gm /EHsc /RTC1 /MDd /GS /fp:precise /Zc:wchar_t /Zc:forScope /Zc:inline /Fo"DEBUG\\" /Fd"DEBUG\VC141.PDB" /Gd /TP /analyze- --add /std:c++latest  C:\USERS\LORDKOPAKOS\DESKTOP\BITBUCKET REPOSITORIES\ADVANCED-C-OPENGL-GAME\OPENGLGAME\ABRA_VODKABRA_GAME\MAINMENU_SCREEN.CPP
^C:\USERS\SEBASTIAN\DESKTOP\BITBUCKET REPOSITORIES\ADVANCED-C-OPENGL-GAME\OPENGLGAME\ABRA_VODKABRA_GAME\BOX2D.CPP
/c /ZI /nologo /W3 /WX- /diagnostics:classic /sdl /Od /Oy- /D _SILENCE_ALL_CXX17_DEPRECATION_WARNINGS /D _MBCS /Gm /EHsc /RTC1 /MDd /GS /fp:precise /Zc:wchar_t /Zc:forScope /Zc:inline /Fo"DEBUG\\" /Fd"DEBUG\VC141.PDB" /Gd /TP /analyze- --add /std:c++latest  C:\USERS\SEBASTIAN\DESKTOP\BITBUCKET REPOSITORIES\ADVANCED-C-OPENGL-GAME\OPENGLGAME\ABRA_VODKABRA_GAME\BOX2D.CPP
^C:\USERS\SEBASTIAN\DESKTOP\BITBUCKET REPOSITORIES\ADVANCED-C-OPENGL-GAME\OPENGLGAME\ABRA_VODKABRA_GAME\CAPSULE2D.CPP
/c /ZI /nologo /W3 /WX- /diagnostics:classic /sdl /Od /Oy- /D _SILENCE_ALL_CXX17_DEPRECATION_WARNINGS /D _MBCS /Gm /EHsc /RTC1 /MDd /GS /fp:precise /Zc:wchar_t /Zc:forScope /Zc:inline /Fo"DEBUG\\" /Fd"DEBUG\VC141.PDB" /Gd /TP /analyze- --add /std:c++latest  C:\USERS\SEBASTIAN\DESKTOP\BITBUCKET REPOSITORIES\ADVANCED-C-OPENGL-GAME\OPENGLGAME\ABRA_VODKABRA_GAME\CAPSULE2D.CPP
^C:\USERS\SEBASTIAN\DESKTOP\BITBUCKET REPOSITORIES\ADVANCED-C-OPENGL-GAME\OPENGLGAME\ABRA_VODKABRA_GAME\GAMEPLAY_SCREEN.CPP
/c /ZI /nologo /W3 /WX- /diagnostics:classic /sdl /Od /Oy- /D _SILENCE_ALL_CXX17_DEPRECATION_WARNINGS /D _MBCS /Gm /EHsc /RTC1 /MDd /GS /fp:precise /Zc:wchar_t /Zc:forScope /Zc:inline /Fo"DEBUG\\" /Fd"DEBUG\VC141.PDB" /Gd /TP /analyze- --add /std:c++latest  C:\USERS\SEBASTIAN\DESKTOP\BITBUCKET REPOSITORIES\ADVANCED-C-OPENGL-GAME\OPENGLGAME\ABRA_VODKABRA_GAME\GAMEPLAY_SCREEN.CPP
^C:\USERS\SEBASTIAN\DESKTOP\BITBUCKET REPOSITORIES\ADVANCED-C-OPENGL-GAME\OPENGLGAME\ABRA_VODKABRA_GAME\LIGHT.CPP
/c /ZI /nologo /W3 /WX- /diagnostics:classic /sdl /Od /Oy- /D _SILENCE_ALL_CXX17_DEPRECATION_WARNINGS /D _MBCS /Gm /EHsc /RTC1 /MDd /GS /fp:precise /Zc:wchar_t /Zc:forScope /Zc:inline /Fo"DEBUG\\" /Fd"DEBUG\VC141.PDB" /Gd /TP /analyze- --add /std:c++latest  C:\USERS\SEBASTIAN\DESKTOP\BITBUCKET REPOSITORIES\ADVANCED-C-OPENGL-GAME\OPENGLGAME\ABRA_VODKABRA_GAME\LIGHT.CPP
^C:\USERS\SEBASTIAN\DESKTOP\BITBUCKET REPOSITORIES\ADVANCED-C-OPENGL-GAME\OPENGLGAME\ABRA_VODKABRA_GAME\MAIN.CPP
/c /ZI /nologo /W3 /WX- /diagnostics:classic /sdl /Od /Oy- /D _SILENCE_ALL_CXX17_DEPRECATION_WARNINGS /D _MBCS /Gm /EHsc /RTC1 /MDd /GS /fp:precise /Zc:wchar_t /Zc:forScope /Zc:inline /Fo"DEBUG\\" /Fd"DEBUG\VC141.PDB" /Gd /TP /analyze- --add /std:c++latest  C:\USERS\SEBASTIAN\DESKTOP\BITBUCKET REPOSITORIES\ADVANCED-C-OPENGL-GAME\OPENGLGAME\ABRA_VODKABRA_GAME\MAIN.CPP
^C:\USERS\SEBASTIAN\DESKTOP\BITBUCKET REPOSITORIES\ADVANCED-C-OPENGL-GAME\OPENGLGAME\ABRA_VODKABRA_GAME\GAME_ENGINE.CPP
/c /ZI /nologo /W3 /WX- /diagnostics:classic /sdl /Od /Oy- /D _SILENCE_ALL_CXX17_DEPRECATION_WARNINGS /D _MBCS /Gm /EHsc /RTC1 /MDd /GS /fp:precise /Zc:wchar_t /Zc:forScope /Zc:inline /Fo"DEBUG\\" /Fd"DEBUG\VC141.PDB" /Gd /TP /analyze- --add /std:c++latest  C:\USERS\SEBASTIAN\DESKTOP\BITBUCKET REPOSITORIES\ADVANCED-C-OPENGL-GAME\OPENGLGAME\ABRA_VODKABRA_GAME\GAME_ENGINE.CPP
^C:\USERS\SEBASTIAN\DESKTOP\BITBUCKET REPOSITORIES\ADVANCED-C-OPENGL-GAME\OPENGLGAME\ABRA_VODKABRA_GAME\MAINMENU_SCREEN.CPP
/c /ZI /nologo /W3 /WX- /diagnostics:classic /sdl /Od /Oy- /D _SILENCE_ALL_CXX17_DEPRECATION_WARNINGS /D _MBCS /Gm /EHsc /RTC1 /MDd /GS /fp:precise /Zc:wchar_t /Zc:forScope /Zc:inline /Fo"DEBUG\\" /Fd"DEBUG\VC141.PDB" /Gd /TP /analyze- --add /std:c++latest  C:\USERS\SEBASTIAN\DESKTOP\BITBUCKET REPOSITORIES\ADVANCED-C-OPENGL-GAME\OPENGLGAME\ABRA_VODKABRA_GAME\MAINMENU_SCREEN.CPP
^C:\USERS\SEBASTIAN\DESKTOP\BITBUCKET REPOSITORIES\ADVANCED-C-OPENGL-GAME\OPENGLGAME\ABRA_VODKABRA_GAME\PLAYER.CPP
/c /ZI /nologo /W3 /WX- /diagnostics:classic /sdl /Od /Oy- /D _SILENCE_ALL_CXX17_DEPRECATION_WARNINGS /D _MBCS /Gm /EHsc /RTC1 /MDd /GS /fp:precise /Zc:wchar_t /Zc:forScope /Zc:inline /Fo"DEBUG\\" /Fd"DEBUG\VC141.PDB" /Gd /TP /analyze- --add /std:c++latest  C:\USERS\SEBASTIAN\DESKTOP\BITBUCKET REPOSITORIES\ADVANCED-C-OPENGL-GAME\OPENGLGAME\ABRA_VODKABRA_GAME\PLAYER.CPP
^C:\USERS\SEBASTIAN\DESKTOP\BITBUCKET REPOSITORIES\ADVANCED-C-OPENGL-GAME\OPENGLGAME\ABRA_VODKABRA_GAME\LVL_EDITOR_SCREEN.CPP
/c /ZI /nologo /W3 /WX- /diagnostics:classic /sdl /Od /Oy- /D _SILENCE_ALL_CXX17_DEPRECATION_WARNINGS /D _MBCS /Gm /EHsc /RTC1 /MDd /GS /fp:precise /Zc:wchar_t /Zc:forScope /Zc:inline /Fo"DEBUG\\" /Fd"DEBUG\VC141.PDB" /Gd /TP /analyze- --add /std:c++latest  C:\USERS\SEBASTIAN\DESKTOP\BITBUCKET REPOSITORIES\ADVANCED-C-OPENGL-GAME\OPENGLGAME\ABRA_VODKABRA_GAME\LVL_EDITOR_SCREEN.CPP
