^C:\USERS\LORDKOPAKOS\DESKTOP\BITBUCKET REPOSITORIES\ADVANCED-C-OPENGL-GAME\OPENGLGAME\ABRA_VODKABRA_GAME\GAMEPLAY_SCREEN.CPP|C:\USERS\LORDKOPAKOS\DESKTOP\BITBUCKET REPOSITORIES\ADVANCED-C-OPENGL-GAME\OPENGLGAME\ABRA_VODKABRA_GAME\GAME_ENGINE.CPP|C:\USERS\LORDKOPAKOS\DESKTOP\BITBUCKET REPOSITORIES\ADVANCED-C-OPENGL-GAME\OPENGLGAME\ABRA_VODKABRA_GAME\MAIN.CPP
C:\USERS\LORDKOPAKOS\DESKTOP\BITBUCKET REPOSITORIES\ADVANCED-C-OPENGL-GAME\OPENGLGAME\ABRA_VODKABRA_GAME\X64\DEBUG\VC141.PDB
C:\USERS\LORDKOPAKOS\DESKTOP\BITBUCKET REPOSITORIES\ADVANCED-C-OPENGL-GAME\OPENGLGAME\ABRA_VODKABRA_GAME\X64\DEBUG\VC141.IDB
^C:\USERS\LORDKOPAKOS\DESKTOP\BITBUCKET REPOSITORIES\ADVANCED-C-OPENGL-GAME\OPENGLGAME\ABRA_VODKABRA_GAME\GAMEPLAY_SCREEN.CPP
C:\USERS\LORDKOPAKOS\DESKTOP\BITBUCKET REPOSITORIES\ADVANCED-C-OPENGL-GAME\OPENGLGAME\ABRA_VODKABRA_GAME\X64\DEBUG\VC141.PDB
^C:\USERS\LORDKOPAKOS\DESKTOP\BITBUCKET REPOSITORIES\ADVANCED-C-OPENGL-GAME\OPENGLGAME\ABRA_VODKABRA_GAME\MAIN.CPP
C:\USERS\LORDKOPAKOS\DESKTOP\BITBUCKET REPOSITORIES\ADVANCED-C-OPENGL-GAME\OPENGLGAME\ABRA_VODKABRA_GAME\X64\DEBUG\VC141.PDB
^C:\USERS\LORDKOPAKOS\DESKTOP\BITBUCKET REPOSITORIES\ADVANCED-C-OPENGL-GAME\OPENGLGAME\ABRA_VODKABRA_GAME\GAME_ENGINE.CPP
C:\USERS\LORDKOPAKOS\DESKTOP\BITBUCKET REPOSITORIES\ADVANCED-C-OPENGL-GAME\OPENGLGAME\ABRA_VODKABRA_GAME\X64\DEBUG\VC141.PDB
